<?xml version="1.0" encoding="UTF-8" standalone="no"?>
<!-- Created with Inkscape (http://www.inkscape.org/) -->

<svg
   xmlns:dc="http://purl.org/dc/elements/1.1/"
   xmlns:cc="http://creativecommons.org/ns#"
   xmlns:rdf="http://www.w3.org/1999/02/22-rdf-syntax-ns#"
   xmlns:svg="http://www.w3.org/2000/svg"
   xmlns="http://www.w3.org/2000/svg"
   xmlns:sodipodi="http://sodipodi.sourceforge.net/DTD/sodipodi-0.dtd"
   xmlns:inkscape="http://www.inkscape.org/namespaces/inkscape"
   width="210mm"
   height="297mm"
   viewBox="0 0 744.09448819 1052.3622047"
   id="svg2"
   version="1.1"
   inkscape:version="0.91 r"
   sodipodi:docname="oftap.svg">
  <defs
     id="defs4" />
  <sodipodi:namedview
     id="base"
     pagecolor="#ffffff"
     bordercolor="#666666"
     borderopacity="1.0"
     inkscape:pageopacity="0.0"
     inkscape:pageshadow="2"
     inkscape:zoom="0.35"
     inkscape:cx="-388.34367"
     inkscape:cy="677.74408"
     inkscape:document-units="px"
     inkscape:current-layer="layer1"
     showgrid="false"
     inkscape:window-width="1366"
     inkscape:window-height="744"
     inkscape:window-x="0"
     inkscape:window-y="24"
     inkscape:window-maximized="1" />
  <metadata
     id="metadata7">
    <rdf:RDF>
      <cc:Work
         rdf:about="">
        <dc:format>image/svg+xml</dc:format>
        <dc:type
           rdf:resource="http://purl.org/dc/dcmitype/StillImage" />
        <dc:title></dc:title>
      </cc:Work>
    </rdf:RDF>
  </metadata>
  <g
     inkscape:label="Layer 1"
     inkscape:groupmode="layer"
     id="layer1">
    <path
       style="fill:#000000"
       d=""
       id="path3349"
       inkscape:connector-curvature="0" />
    <path
       style="fill:#000000"
       d=""
       id="path3347"
       inkscape:connector-curvature="0" />
    <path
       style="fill:#646263;fill-opacity:1"
       d="M 343.64261,543.2245 C 287.30067,533.21968 240.24973,489.97031 225.5261,434.65149 c -6.29496,-23.65109 -5.01667,-62.63691 2.81914,-85.97935 15.96418,-47.55648 52.85589,-82.85361 101.55661,-97.16704 18.9834,-5.57933 60.69421,-5.57933 79.67761,0 50.275,14.77612 89.46834,54.25784 104.21387,104.98069 5.08269,17.48381 5.78648,54.89578 1.40235,74.54617 -10.91113,48.90564 -53.43265,93.59522 -102.8701,108.11517 -18.33125,5.38396 -50.55287,7.29681 -68.68297,4.07737 z"
       id="path3397-3"
       inkscape:connector-curvature="0"
       sodipodi:nodetypes="sssssssss" />
    <path
       style="fill:#11c1f3;fill-opacity:1;stroke:none;stroke-opacity:1"
       d="M 314.01294,711.1428 C 190.04786,688.6944 91.817401,597.47507 59.789541,475.06441 c -7.36916,-28.16498 -8.08656,-34.67606 -8.34724,-75.75861 -0.37917,-59.7552 7.03183,-94.87506 30.12684,-142.76773 C 132.76371,150.37469 235.47364,82.177669 353.07345,76.265499 c 50.48111,-2.53787 96.73838,5.73059 145.40706,25.991401 l 19.31557,8.0411 0,53.95214 c 0,38.8014 -0.174,56.80929 -0.174,56.80929 0,0 -12.23132,-7.06739 -19.98387,-12.21324 -20.69091,-13.73384 -49.66612,-26.80185 -73.69869,-33.23857 -29.68366,-7.95027 -78.66544,-7.95714 -108.39772,-0.0152 -101.87089,27.21127 -170.37049,113.97034 -171.41169,217.10375 -0.63282,62.68204 20.84683,116.78329 63.84196,160.80006 28.77522,29.45899 59.56494,48.02106 100.14721,60.37536 20.67028,6.29257 27.59129,7.08877 61.62138,7.08877 34.03009,0 40.9511,-0.7962 61.62138,-7.08877 81.49169,-24.80819 136.93599,-84.07944 159.50241,-168.29848 6.31406,-23.56439 5.5464,-116.42946 5.5464,-142.10677 0,-100.88101 1.76497,-127.95223 1.76497,-127.95223 10.44222,3.8615 49.86917,56.98231 65.19859,92.85851 19.64587,45.97813 27.84122,91.85214 25.48753,142.66793 -6.96907,150.46141 -116.43613,274.27141 -265.47776,300.26209 -27.75569,4.84017 -82.19929,4.76062 -109.37124,-0.15995 z"
       id="path3397-5"
       inkscape:connector-curvature="0"
       sodipodi:nodetypes="ccsssssccsssssssssssssssc" />
    <flowRoot
       xml:space="preserve"
       id="flowRoot3338"
       style="font-style:normal;font-weight:normal;font-size:158.75px;line-height:125%;font-family:Sans;letter-spacing:0px;word-spacing:0px;fill:#646263;fill-opacity:1;stroke:none;stroke-width:1px;stroke-linecap:butt;stroke-linejoin:miter;stroke-opacity:1;"
       transform="translate(25.714286,-5.7142857)"><flowRegion
         id="flowRegion3340"><rect
           id="rect3342"
           width="647.75452"
           height="205.71764"
           x="71.428574"
           y="752.36218"
           style="font-size:158.75px;fill:#646263;fill-opacity:1;" /></flowRegion><flowPara
         id="flowPara3344"
         style="font-style:normal;font-variant:normal;font-weight:normal;font-stretch:normal;font-size:158.75px;font-family:Comfortaa;-inkscape-font-specification:Comfortaa;fill:#646263;fill-opacity:1;">Oftapp</flowPara></flowRoot>  </g>
</svg>
