<?xml version="1.0" encoding="UTF-8" standalone="no"?>
<!-- Generator: Adobe Illustrator 14.0.0, SVG Export Plug-In . SVG Version: 6.00 Build 43363)  -->

<svg
   xmlns:dc="http://purl.org/dc/elements/1.1/"
   xmlns:cc="http://creativecommons.org/ns#"
   xmlns:rdf="http://www.w3.org/1999/02/22-rdf-syntax-ns#"
   xmlns:svg="http://www.w3.org/2000/svg"
   xmlns="http://www.w3.org/2000/svg"
   xmlns:sodipodi="http://sodipodi.sourceforge.net/DTD/sodipodi-0.dtd"
   xmlns:inkscape="http://www.inkscape.org/namespaces/inkscape"
   version="1.0"
   id="Layer_1"
   x="0px"
   y="0px"
   width="100px"
   height="98.561px"
   viewBox="0 0 100 98.561"
   enable-background="new 0 0 100 98.561"
   xml:space="preserve"
   inkscape:version="0.48.4 r9939"
   sodipodi:docname="noun_599.svg"><metadata
     id="metadata23"><rdf:RDF><cc:Work
         rdf:about=""><dc:format>image/svg+xml</dc:format><dc:type
           rdf:resource="http://purl.org/dc/dcmitype/StillImage" /></cc:Work></rdf:RDF></metadata><defs
     id="defs21" /><sodipodi:namedview
     pagecolor="#ffffff"
     bordercolor="#666666"
     borderopacity="1"
     objecttolerance="10"
     gridtolerance="10"
     guidetolerance="10"
     inkscape:pageopacity="0"
     inkscape:pageshadow="2"
     inkscape:window-width="1280"
     inkscape:window-height="776"
     id="namedview19"
     showgrid="false"
     inkscape:zoom="2.3944563"
     inkscape:cx="50"
     inkscape:cy="49.280499"
     inkscape:window-x="0"
     inkscape:window-y="24"
     inkscape:window-maximized="1"
     inkscape:current-layer="Layer_1" /><path
     d="m 88.305725,82.482 h -25.115 c -4.379,0 -7.941,-3.555 -7.941,-7.934 0,-4.387 3.562,-7.935 7.941,-7.935 h 25.115 v 15.869 z"
     id="path7"
     inkscape:connector-curvature="0" /><path
     d="m 34.156725,88.92 c 0,-1.774 1.438,-3.216 3.213,-3.216 h 50.937 V 98.56 h -54.15 v -9.64 z"
     id="path9"
     inkscape:connector-curvature="0" /><ellipse
     cx="20.907"
     cy="72.903999"
     rx="9.5939999"
     ry="9.5780001"
     id="ellipse11"
     sodipodi:cx="20.907"
     sodipodi:cy="72.903999"
     sodipodi:rx="9.5939999"
     sodipodi:ry="9.5780001"
     transform="translate(22.969725,0)" /><path
     d="m 69.573797,45.244738 -5.396,-15.363 c -1.046,-2.896 -3.057,-5.157 -8.731,-5.157 h -24.912 c -5.671,0 -7.685,2.261 -8.728,5.157 l -5.394,15.363 c -0.403,0.992 -0.614,3.222 1.583,4.716 l 12.687,8.357 c 1.849,1.224 4.347,0.712 5.569,-1.136 1.222,-1.848 0.712,-4.347 -1.145,-5.567 l -6.095,-4.018 -3.972,-2.619 2.834,-7.818 h 3.923 l -2.298,6.342 7.643,5.038 c 1.716,1.132 2.893,2.865 3.303,4.88 0.417,2.016 0.021,4.074 -1.113,5.792 -0.452,0.684 -1.01,1.266 -1.63,1.764 h 10.583 c -0.621,-0.498 -1.175,-1.08 -1.633,-1.764 -1.132,-1.718 -1.528,-3.776 -1.114,-5.792 0.413,-2.016 1.59,-3.748 3.304,-4.88 l 7.648,-5.038 -2.307,-6.342 h 3.927 l 2.84,7.818 -3.973,2.619 -6.101,4.018 c -1.851,1.221 -2.368,3.72 -1.143,5.567 1.225,1.847 3.72,2.359 5.573,1.136 l 12.683,-8.357 c 2.193,-1.494 1.987,-3.724 1.585,-4.716 z"
     id="path13"
     inkscape:connector-curvature="0" /><path
     d="m 45.470797,9.6867376 c -0.602,1.3010004 -1.916,2.2050004 -3.443,2.2050004 -1.53,0 -2.847,-0.904 -3.45,-2.2050004 h -6.949 c -0.112,0.6100004 -0.179,1.2340004 -0.179,1.8790004 0,5.855 4.756,10.602 10.617,10.602 5.863,0 10.615,-4.747 10.615,-10.602 0,-0.645 -0.068,-1.269 -0.177,-1.8790004 h -7.034 z"
     id="path15"
     inkscape:connector-curvature="0" /><path
     d="m 38.342797,7.1837372 c 0.413,-1.645 1.901,-2.872 3.685,-2.872 1.775,0 3.274,1.227 3.678,2.872 h 6.021 c -1.671,-3.667 -5.362,-6.22299996 -9.66,-6.22299996 -4.295,0 -7.991,2.55599996 -9.661,6.22299996 h 5.937 z"
     id="path17"
     inkscape:connector-curvature="0" /></svg>