<?xml version="1.0" encoding="UTF-8" standalone="no"?>
<svg
   xmlns:ns="http://ns.adobe.com/SaveForWeb/1.0/"
   xmlns:dc="http://purl.org/dc/elements/1.1/"
   xmlns:cc="http://creativecommons.org/ns#"
   xmlns:rdf="http://www.w3.org/1999/02/22-rdf-syntax-ns#"
   xmlns:svg="http://www.w3.org/2000/svg"
   xmlns="http://www.w3.org/2000/svg"
   xmlns:sodipodi="http://sodipodi.sourceforge.net/DTD/sodipodi-0.dtd"
   xmlns:inkscape="http://www.inkscape.org/namespaces/inkscape"
   version="1.1"
   x="0px"
   y="0px"
   width="100px"
   height="100px"
   viewBox="5.0 -10.0 100.0 135.0"
   enable-background="new 0 0 100 100"
   xml:space="preserve"
   id="svg2"
   inkscape:version="0.48.4 r9939"
   sodipodi:docname="sintomas-visuais.svg"><defs
     id="defs22" /><sodipodi:namedview
     pagecolor="#ffffff"
     bordercolor="#666666"
     borderopacity="1"
     objecttolerance="10"
     gridtolerance="10"
     guidetolerance="10"
     inkscape:pageopacity="0"
     inkscape:pageshadow="2"
     inkscape:window-width="1280"
     inkscape:window-height="776"
     id="namedview20"
     showgrid="false"
     inkscape:zoom="2.36"
     inkscape:cx="50"
     inkscape:cy="50"
     inkscape:window-x="0"
     inkscape:window-y="24"
     inkscape:window-maximized="1"
     inkscape:current-layer="svg2" /><metadata
     id="metadata4"><ns:sfw><ns:slices /><ns:sliceSourceBounds
         width="99.999"
         height="34.716"
         bottomLeftOrigin="true"
         y="-67.267"
         x="0" /></ns:sfw><rdf:RDF><cc:Work
         rdf:about=""><dc:format>image/svg+xml</dc:format><dc:type
           rdf:resource="http://purl.org/dc/dcmitype/StillImage" /></cc:Work></rdf:RDF></metadata><g
     id="Captions" /><g
     id="Your_Icon"
     transform="matrix(1.2002121,0,0,1.5766956,-3.3634728,-18.772127)"><g
       id="g8"><path
         d="m 41.907,40.626 -32.468,-1.9 c -0.332,0.297 -0.606,0.591 -0.831,0.873 -0.993,1.248 -1.121,3.417 -0.967,5.39 1.367,0.144 3.386,0.322 6.35,0.521 2.632,0.178 6.103,0.532 9.835,0.878 -2.376,1.645 -5.627,4.352 -11.35,10.74 0.89,0.642 1.973,1.12 3.301,1.325 0.216,0.034 0.436,0.066 0.657,0.099 0.303,0.043 0.61,0.086 0.921,0.127 0.001,0 0.002,0 0.004,0 1.844,-2.337 4.127,-5.021 6.916,-8.033 0.497,-0.537 0.988,-0.989 1.488,-1.375 0.5,-0.348 1.049,-0.696 1.648,-1.03 1.146,-0.567 2.408,-0.92 3.927,-1.237 3.66,0.243 7.215,0.366 10.169,0.206 0.083,-0.49 0.153,-0.949 0.212,-1.377 10e-4,-0.008 0.002,-0.017 0.003,-0.025 10e-4,-0.004 10e-4,-0.008 0.002,-0.012 0.253,-1.838 0.307,-3.115 0.285,-3.977 -0.012,-0.56 -0.058,-0.944 -0.102,-1.193 z"
         id="path10"
         inkscape:connector-curvature="0"
         style="fill:#000000" /><path
         d="m 90.494,38.727 -32.468,1.9 c -0.045,0.249 -0.09,0.633 -0.104,1.192 -0.021,0.861 0.032,2.138 0.285,3.977 10e-4,0.004 10e-4,0.008 0.002,0.012 10e-4,0.008 0.002,0.017 0.003,0.025 0.06,0.428 0.13,0.887 0.213,1.377 2.954,0.16 6.511,0.037 10.172,-0.206 1.52,0.317 2.78,0.67 3.927,1.238 0.599,0.333 1.146,0.682 1.646,1.03 0.501,0.386 0.992,0.837 1.489,1.375 2.789,3.012 5.072,5.695 6.916,8.033 10e-4,0 0.002,-10e-4 0.004,-10e-4 0.312,-0.04 0.619,-0.083 0.921,-0.127 0.22,-0.032 0.438,-0.063 0.654,-0.098 1.329,-0.206 2.413,-0.685 3.304,-1.327 -5.722,-6.386 -8.973,-9.093 -11.35,-10.738 3.733,-0.346 7.204,-0.7 9.836,-0.878 2.961,-0.199 4.98,-0.377 6.347,-0.521 0.154,-1.972 0.025,-4.142 -0.967,-5.39 -0.224,-0.282 -0.499,-0.577 -0.83,-0.873 z"
         id="path12"
         inkscape:connector-curvature="0"
         style="fill:#000000" /><path
         d="m 99.999,42.697 c -0.016,-1.419 -0.172,-5.752 -0.172,-5.752 0,0 0.065,-0.773 -1.266,-1.073 C 96.935,35.505 86.223,32.067 71.495,32.609 60,33.032 59.764,35.356 50.112,35.958 H 49.889 C 40.237,35.357 40.001,33.033 28.505,32.609 13.776,32.067 3.064,35.505 1.438,35.872 c -1.331,0.3 -1.266,1.073 -1.266,1.073 0,0 -0.155,4.333 -0.172,5.752 -0.017,1.57 0.473,1.331 0.473,1.331 1.116,0 1.76,0.386 2.536,1.417 0.776,1.031 2.4,7.47 4.332,11.032 0.641,1.182 1.617,2.174 3.104,2.954 -0.877,1.01 -1.806,2.096 -2.791,3.268 0,0 -1.363,1.59 -1.59,2.044 -0.227,0.455 -1.136,1.061 0.606,1.969 0,0 0.187,0.115 0.523,0.213 1.067,0.602 2.406,0.418 3.854,-0.598 0.514,-0.281 1.033,-0.725 1.698,-1.53 0.492,-0.541 0.989,-1.17 1.484,-1.894 0.143,-0.207 0.292,-0.421 0.444,-0.639 0.301,-0.401 0.625,-0.835 0.964,-1.289 2.875,0.447 6.618,0.591 11.493,0.396 12.878,-0.516 14.467,-7.213 15.926,-9.659 0.792,-1.327 1.444,-3.171 2.102,-4.91 1.762,-0.295 3.333,-0.509 4.809,-0.662 1.494,0.155 3.088,0.373 4.878,0.673 0.656,1.736 1.308,3.575 2.098,4.899 1.459,2.446 3.048,9.144 15.926,9.659 4.843,0.193 8.568,0.053 11.436,-0.388 0.337,0.451 0.658,0.881 0.956,1.28 0.152,0.218 0.302,0.431 0.444,0.639 0.495,0.724 0.992,1.352 1.484,1.893 0.665,0.806 1.185,1.25 1.698,1.531 1.447,1.016 2.786,1.199 3.854,0.598 0.336,-0.098 0.523,-0.213 0.523,-0.213 1.741,-0.908 0.833,-1.514 0.605,-1.969 -0.228,-0.454 -1.59,-2.044 -1.59,-2.044 -0.978,-1.162 -1.898,-2.241 -2.771,-3.245 1.512,-0.783 2.502,-1.783 3.148,-2.977 1.933,-3.562 3.557,-10.002 4.333,-11.032 0.775,-1.03 1.42,-1.417 2.536,-1.417 0.002,10e-4 0.492,0.24 0.474,-1.33 z M 3.009,40.839 c -0.868,0 -1.571,-0.357 -1.571,-0.797 0,-0.44 0.704,-0.796 1.571,-0.796 0.867,0 1.571,0.356 1.571,0.796 0,0.44 -0.703,0.797 -1.571,0.797 z M 37.53,56.021 c -0.705,0.509 -1.552,1.022 -2.55,1.499 -0.003,10e-4 -0.006,0.003 -0.009,0.004 -0.166,0.08 -0.338,0.158 -0.513,0.234 -0.02,0.01 -0.041,0.019 -0.062,0.027 -0.183,0.08 -0.369,0.159 -0.561,0.235 -0.007,0.003 -0.015,0.005 -0.022,0.008 -0.18,0.072 -0.366,0.144 -0.555,0.213 -0.028,0.01 -0.057,0.021 -0.086,0.031 -0.199,0.071 -0.401,0.142 -0.61,0.21 -0.01,0.003 -0.021,0.006 -0.031,0.01 -0.194,0.063 -0.394,0.124 -0.596,0.185 -0.038,0.011 -0.075,0.022 -0.113,0.033 -0.215,0.062 -0.434,0.123 -0.658,0.181 -0.014,0.004 -0.029,0.007 -0.044,0.012 -0.208,0.053 -0.42,0.104 -0.636,0.153 -0.047,0.01 -0.094,0.021 -0.141,0.032 -0.232,0.051 -0.467,0.1 -0.708,0.146 -0.018,0.003 -0.036,0.007 -0.053,0.01 -0.223,0.043 -0.45,0.082 -0.68,0.12 -0.057,0.009 -0.113,0.019 -0.17,0.027 -0.249,0.039 -0.501,0.076 -0.759,0.109 -0.019,0.002 -0.037,0.005 -0.056,0.007 -0.24,0.03 -0.485,0.058 -0.733,0.083 -0.065,0.007 -0.129,0.014 -0.195,0.021 -0.268,0.025 -0.539,0.048 -0.815,0.067 -0.017,0.001 -0.034,0.002 -0.05,0.003 -0.261,0.018 -0.528,0.031 -0.797,0.043 -0.072,0.003 -0.145,0.006 -0.217,0.009 -0.288,0.01 -0.578,0.019 -0.875,0.021 -0.011,0 -0.022,0 -0.033,0 -0.287,0.003 -0.579,0.001 -0.875,-0.003 -0.078,-0.002 -0.156,-0.003 -0.234,-0.005 -0.309,-0.007 -0.622,-0.016 -0.94,-0.03 C 20.23,59.628 18.49,59.482 16.936,59.235 16.932,59.234 16.928,59.234 16.923,59.233 16.618,59.184 16.321,59.13 16.031,59.074 14.454,58.766 13.087,58.337 11.934,57.733 10.06,56.752 8.748,55.314 8.011,53.203 7.184,50.837 6.442,47.708 6.306,44.833 c -0.068,-1.457 0.02,-2.846 0.332,-4.04 0.21,-0.804 0.523,-1.519 0.958,-2.104 0.017,-0.022 0.032,-0.047 0.049,-0.069 0.256,-0.33 0.552,-0.617 0.893,-0.852 3.58,-2.465 11.736,-3.25 16.079,-3.228 0,0 16.138,-0.646 17.605,5.105 0.036,0.139 0.067,0.279 0.097,0.421 0.003,0.016 0.006,0.03 0.01,0.046 0.018,0.09 0.034,0.182 0.05,0.273 0.017,0.076 0.035,0.165 0.052,0.27 0.023,0.143 0.044,0.315 0.062,0.517 0.015,0.171 0.026,0.366 0.033,0.584 0.026,0.885 -0.03,2.178 -0.288,4.033 0,0.005 -10e-4,0.009 -0.002,0.014 0,0.003 -10e-4,0.007 -10e-4,0.011 -0.059,0.425 -0.128,0.877 -0.21,1.362 0.002,0 0.004,0 0.006,0 -0.913,3.975 -2.826,7.633 -4.501,8.845 z m 54.396,-2.818 c -0.737,2.112 -2.05,3.551 -3.926,4.531 -0.001,-0.001 -0.001,-0.002 -0.002,-0.003 -1.152,0.604 -2.52,1.034 -4.097,1.342 -0.29,0.058 -0.587,0.111 -0.892,0.159 -0.005,10e-4 -0.008,0.002 -0.013,0.002 0,10e-4 0,10e-4 0,10e-4 -1.554,0.247 -3.291,0.394 -5.213,0.481 -0.324,0.015 -0.642,0.024 -0.956,0.03 -0.072,0.002 -0.145,0.003 -0.217,0.004 -0.297,0.005 -0.592,0.007 -0.881,0.004 -0.012,0 -0.023,0 -0.035,0 -0.29,-0.003 -0.575,-0.012 -0.856,-0.021 -0.085,-0.004 -0.17,-0.007 -0.255,-0.011 -0.238,-0.011 -0.474,-0.023 -0.705,-0.038 -0.057,-0.004 -0.115,-0.007 -0.171,-0.011 -0.245,-0.018 -0.485,-0.038 -0.724,-0.061 -0.096,-0.009 -0.191,-0.019 -0.285,-0.028 -0.188,-0.02 -0.373,-0.041 -0.556,-0.063 -0.1,-0.013 -0.199,-0.024 -0.298,-0.037 -0.197,-0.026 -0.392,-0.055 -0.583,-0.085 -0.104,-0.017 -0.208,-0.032 -0.312,-0.051 -0.144,-0.023 -0.285,-0.049 -0.425,-0.074 -0.141,-0.025 -0.28,-0.053 -0.418,-0.08 -0.147,-0.029 -0.293,-0.06 -0.437,-0.091 -0.112,-0.024 -0.223,-0.05 -0.333,-0.075 -0.105,-0.024 -0.208,-0.05 -0.312,-0.075 -0.185,-0.045 -0.364,-0.092 -0.542,-0.141 -0.092,-0.025 -0.185,-0.05 -0.275,-0.076 -0.119,-0.033 -0.235,-0.068 -0.353,-0.103 -0.07,-0.022 -0.14,-0.044 -0.209,-0.065 -0.236,-0.074 -0.468,-0.15 -0.693,-0.229 -0.026,-0.009 -0.054,-0.018 -0.08,-0.027 -0.126,-0.045 -0.249,-0.09 -0.371,-0.137 -0.038,-0.014 -0.075,-0.028 -0.112,-0.043 -0.392,-0.149 -0.764,-0.305 -1.118,-0.467 -0.007,-0.003 -0.015,-0.006 -0.021,-0.009 -0.101,-0.047 -0.204,-0.092 -0.302,-0.138 0.014,0.005 0.027,0.01 0.04,0.016 -1.012,-0.481 -1.869,-1 -2.581,-1.515 -1.67,-1.209 -3.577,-4.848 -4.495,-8.809 h -0.003 c -0.002,-0.012 -0.004,-0.022 -0.006,-0.033 0,-0.002 -10e-4,-0.004 -10e-4,-0.006 -0.081,-0.483 -0.149,-0.933 -0.209,-1.356 0,-0.004 -10e-4,-0.008 -10e-4,-0.011 C 57.691,45.8 57.69,45.795 57.69,45.79 c -0.258,-1.854 -0.313,-3.148 -0.287,-4.033 0.002,-0.095 0.006,-0.188 0.01,-0.274 0.019,-0.344 0.05,-0.616 0.084,-0.827 0.017,-0.099 0.033,-0.183 0.05,-0.257 0.045,-0.255 0.096,-0.507 0.159,-0.752 1.191,-4.675 12.078,-5.123 16.11,-5.127 0.933,-0.001 1.501,0.022 1.501,0.022 4.342,-0.022 12.499,0.763 16.078,3.228 0.342,0.235 0.638,0.521 0.893,0.852 h -0.006 c 0.021,0.026 0.038,0.055 0.058,0.081 l -0.012,-0.026 c 0.444,0.592 0.762,1.318 0.974,2.138 l -0.017,-0.036 c 0.315,1.197 0.405,2.593 0.337,4.056 0.002,0 0.004,0 0.006,-10e-4 -0.133,2.874 -0.875,6.002 -1.702,8.369 z m 4.996,-12.364 c -0.867,0 -1.571,-0.357 -1.571,-0.797 0,-0.44 0.704,-0.796 1.571,-0.796 0.868,0 1.571,0.356 1.571,0.796 0,0.44 -0.703,0.797 -1.571,0.797 z"
         id="path14"
         inkscape:connector-curvature="0"
         style="fill:#000000" /></g></g></svg>